topic_description|topic_name|top_num_questions
JavaScript, often abbreviated as JS, is a high-level, dynamic, weakly typed, prototype-based, multi-paradigm, and interpreted programming language. Alongside HTML and CSS, JavaScript is one of the three core technologies of World Wide Web content production. It is used to make webpages interactive and provide online programs, including video games.|JavaScript|1
An algorithm is a self-contained step-by-step set of operations to be performed. Algorithms exist that perform calculation, data processing, and automated reasoning. Starting from an initial state and initial input (perhaps empty), the instructions describe a computation that, when executed, proceeds through a finite number of well-defined successive states, eventually producing "output" and terminating at a final ending state. The transition from one state to the next is not necessarily deterministic; some algorithms, known as randomized algorithms, incorporate random input.|Algorithm|0
PHP is a widely-used server-side scripting language especially suited for web development, powering tens of millions of sites from Facebook to personal WordPress blogs. PHP is often paired with the MySQL relational database, but includes support for most other mainstream databases. By utilizing different Server APIs, PHP can work on many different web servers as a server-side scripting language.|PHP|1
Asynchronous JavaScript and XML (AJAX) is a group of interrelated Web development techniques used on the client-side to create asynchronous Web applications. With AJAX, web applications can send data to and retrieve from a server asynchronously (in the background) without interfering with the display and behavior of the existing page. HTML and CSS can be used in combination to mark up and style information. The Document Object Model (DOM) is accessed with JavaScript to dynamically display and allow interaction with the information presented.|AJAX|0
Android is a mobile operating system developed by Google, based on the Linux kernel and designed primarily for touchscreen mobile devices such as smartphones and tablets. Android's user interface is based on direct manipulation, using touch gestures that loosely correspond to real-world actions, such as swiping, tapping and pinching, to manipulate on-screen objects, along with a virtual keyboard for text input. In addition to touchscreen devices, variants of Android are also used on notebooks, game consoles, digital cameras, televisions, automobiles and other electronics. Applications are usually developed in Java programming language using the Android software development kit (SDK), but other development environments are also available, including Delphi, Ruby and Visual Studio (using C++).|Android|1
C++ is an intermediate-level general-purpose programming language, not to be confused with C or C#. It was developed as a set of extensions to the C programming language to improve type-safety and add support for automatic resource management, object-orientation, generic programming, and exception handling, among other features.|C++|2
Bootstrap is a free and open-source collection of tools for creating websites and web applications. It contains HTML- and CSS-based design templates for typography, forms, buttons, navigation and other interface components, as well as optional JavaScript extensions. It aims to ease the development of dynamic websites and web applications. Bootstrap is a front end web framework, that is, an interface for the user, unlike the server-side code which resides on the "back end" or server.|Bootstrap|1