answer_comment_body|comment_date_posted|comment_upVotes|comment_downVotes
The wait wheel animation (animated GIF) is loaded by the previous page when you click on a link to go to the next page.  It will stay up until that next page loads.|10-24-2017|4|0
This answer is lacking a bit. Can you explain further?|10-24-2017|4|0
Thanks|10-24-2017|3|0
I ran into the exact same problem while downloading installing the mySQL client.|10-24-2017|0|0
Django is used in the backend development webapps.|10-24-2017|0|0
HTML is used to code the front end.|10-24-2017|2|0
Can you attach the code you're referring to in your answer. Its a bit confusing. Thank you!|10-24-2017|1|1
